{
    "12-3-2016": {
        "energy_used_today": {
            "unit": "wh",
            "value": 127.26812236111108
        },
        "co2_emitted_today": {
            "unit": "g",
            "value": 47.852814007777766
        }
    },
    "13-3-2016": {
        "energy_used_today": {
            "unit": "wh",
            "value": 127.26812236111108
        },
        "co2_emitted_today": {
            "unit": "g",
            "value": 47.852814007777766
        }
    },
    "14-3-2016": {
        "energy_used_today": {
            "unit": "wh",
            "value": 276.24933181052177
        },
        "co2_emitted_today": {
            "unit": "g",
            "value": 103.86974876075618
        }
    },
    "15-3-2016": {
        "energy_used_today": {
            "unit": "wh",
            "value": 491.91282167886476
        },
        "co2_emitted_today": {
            "unit": "g",
            "value": 184.95922095125314
        }
    },
    "16-3-2016": {
        "energy_used_today": {
            "unit": "wh",
            "value": 0.16886666666666708
        },
        "co2_emitted_today": {
            "unit": "g",
            "value": 0.06349386666666683
        }
    },
    "27-5-2016": {
        "energy_used_today": {
            "unit": "wh",
            "value": 1.3984270833333885
        },
        "co2_emitted_today": {
            "unit": "g",
            "value": 0.5258085833333541
        }
    }
}